{
    "content": [
        {
            "estimateDeliveryMonth": 12,
            "isUrgent": true,
            "typeId": 2,
            "probabilityOfClosingId": "High",
            "estimateDeliveryYear": 2013,
            "stageId": 64,
            "phaseId": 3,
            "stageIdEnteredAt": 2,
            "id": 100002,
            "jobSiteId": 500101,
            "salesRepId": 313,
            "ownerUserId": 772,
            "originatorUserId": 772,
            "sourceId": 256,
            "campaignId": 101,
            "classificationId": "A",
            "cmCaseId": "CASE-2938",
            "estimateRevenue": 2590,
            "enterDate": "2013-06-13T16:29:08.210Z",
            "changeDate": "2024-05-27T13:21:22.520Z",
            "customerId": "1019550",
            "customerName": "JDT CONTRACTOR LTD",
            "customerAddress": "1200 Medical Center Dr",
            "customerCity": "Chicago",
            "customerZipCode": "60612",
            "customerState": "IL",
            "principalWorkCodeId": "PW-01",
            "externalReferenceNumber": "EXT-99882",
            "branchId": 10,
            "olgaOpportunityId": "OLG-102",
            "contactName": "Latisha Tyler",
            "contactPhone": "312-555-0192",
            "contactEmail": "latisha.tyler@jdtcontractor.com",
            "description": "12-month rental of 950M Heavy Duty Loader for industrial site grading.",
            "industryCodeId": "236220",
            "workOrderId": "WO-1002",
            "customerCountry": "USA",
            "divisionId": "E",
            "PSETypeId": 1,
            "additionalSourceIds": [
                12
            ],
            "productGroups": [
                {
                    "statusId": 8,
                    "id": 100002,
                    "order": 1,
                    "products": [
                        {
                            "partCategoryId": 15,
                            "rentDurationTypeId": 2,
                            "isPrimary": true,
                            "quantity": 1,
                            "id": 100002,
                            "rentDuration": 12,
                            "familyId": 305,
                            "age": 3,
                            "hours": 1200,
                            "unitPrice": 2590,
                            "description": "Heavy Duty Loader",
                            "makeId": "CAT",
                            "baseModelId": "950M",
                            "stockNumber": "STK-992",
                            "serialNumber": "CAT00950M1234",
                            "quoteId": 5001,
                            "quoteStatusId": 2,
                            "typeCodeId": 1,
                            "equipmentStatusId": "New"
                        }
                    ]
                }
            ],
            "notes": []
        },
        {
            "estimateDeliveryMonth": 7,
            "isUrgent": false,
            "typeId": 8,
            "probabilityOfClosingId": "Medium",
            "estimateDeliveryYear": 2013,
            "stageId": 128,
            "phaseId": 4,
            "stageIdEnteredAt": 1,
            "id": 100003,
            "jobSiteId": 500103,
            "salesRepId": 303,
            "ownerUserId": 651,
            "originatorUserId": 421,
            "sourceId": 256,
            "campaignId": 102,
            "classificationId": "B",
            "cmCaseId": "CASE-4402",
            "estimateRevenue": 15000,
            "enterDate": "2013-06-18T10:13:16.243Z",
            "changeDate": "2013-06-18T10:27:39.526Z",
            "customerId": "NON-DBS",
            "customerName": "PXC PAVING",
            "customerAddress": "I-55 Southbound",
            "customerCity": "Bolingbrook",
            "customerZipCode": "60440",
            "customerState": "IL",
            "principalWorkCodeId": "PW-05",
            "externalReferenceNumber": "EXT-22910",
            "branchId": 12,
            "olgaOpportunityId": "OLG-331",
            "contactName": "Wesley Moss",
            "contactPhone": "309-555-0821",
            "contactEmail": "wesley.moss@pxcpaving.com",
            "description": "Short-term rental of asphalt paver and compactor for highway resurfacing project.",
            "industryCodeId": "237310",
            "workOrderId": "WO-2291",
            "customerCountry": "USA",
            "divisionId": "E",
            "PSETypeId": 2,
            "additionalSourceIds": [],
            "productGroups": [],
            "notes": []
        },
        {
            "estimateDeliveryMonth": 7,
            "isUrgent": false,
            "typeId": 8,
            "probabilityOfClosingId": "High",
            "estimateDeliveryYear": 2013,
            "stageId": 32,
            "phaseId": 3,
            "stageIdEnteredAt": 2,
            "id": 100004,
            "jobSiteId": 500105,
            "salesRepId": 305,
            "ownerUserId": 353,
            "originatorUserId": 421,
            "sourceId": 64,
            "campaignId": 101,
            "classificationId": "A",
            "cmCaseId": "CASE-1129",
            "estimateRevenue": 5366,
            "enterDate": "2013-06-18T10:42:27.606Z",
            "changeDate": "2016-12-05T13:30:08.606Z",
            "customerId": "1140350",
            "customerName": "HUJ CONTRACTOR LTD",
            "customerAddress": "3000 Duke Parkway",
            "customerCity": "Aurora",
            "customerZipCode": "60502",
            "customerState": "IL",
            "principalWorkCodeId": "PW-02",
            "externalReferenceNumber": "EXT-77482",
            "branchId": 10,
            "olgaOpportunityId": "OLG-404",
            "contactName": "Wendi Delacruz",
            "contactPhone": "630-555-0992",
            "contactEmail": "wendi.d@hujcontractor.com",
            "description": "6-month rental of used 3508 Generator Set for temporary site power.",
            "industryCodeId": "238910",
            "workOrderId": "WO-3321",
            "customerCountry": "USA",
            "divisionId": "E",
            "PSETypeId": 1,
            "additionalSourceIds": [],
            "productGroups": [
                {
                    "statusId": 4,
                    "id": 100004,
                    "order": 1,
                    "products": [
                        {
                            "partCategoryId": 10,
                            "rentDurationTypeId": 1,
                            "isPrimary": true,
                            "quantity": 1,
                            "id": 1,
                            "rentDuration": 6,
                            "familyId": 401,
                            "age": 5,
                            "hours": 4500,
                            "unitPrice": 5366,
                            "description": "3508 Generator Set",
                            "makeId": "CAT",
                            "baseModelId": "3508",
                            "stockNumber": "STK-551",
                            "serialNumber": "CAT3508B129",
                            "quoteId": 5055,
                            "quoteStatusId": 3,
                            "typeCodeId": 1,
                            "equipmentStatusId": "Used"
                        }
                    ]
                }
            ],
            "notes": []
        },
        {
            "estimateDeliveryMonth": 7,
            "isUrgent": false,
            "typeId": 8,
            "probabilityOfClosingId": "Medium",
            "estimateDeliveryYear": 2013,
            "stageId": 64,
            "phaseId": 3,
            "stageIdEnteredAt": 8,
            "id": 100005,
            "jobSiteId": 500105,
            "salesRepId": 304,
            "ownerUserId": 211,
            "originatorUserId": 421,
            "sourceId": 64,
            "campaignId": 103,
            "classificationId": "C",
            "cmCaseId": "CASE-9921",
            "estimateRevenue": 2894,
            "enterDate": "2013-06-18T10:48:26.816Z",
            "changeDate": "2013-12-05T16:21:46.996Z",
            "customerId": "1035040",
            "customerName": "YYP CONTRACTOR LTD",
            "customerAddress": "3000 Duke Parkway",
            "customerCity": "Aurora",
            "customerZipCode": "60502",
            "customerState": "IL",
            "principalWorkCodeId": "PW-09",
            "externalReferenceNumber": "EXT-11203",
            "branchId": 14,
            "olgaOpportunityId": "OLG-512",
            "contactName": "Victoria Flowers",
            "contactPhone": "217-555-0774",
            "contactEmail": "v.flowers@yypcontractor.com",
            "description": "24-month lease of new 3516 Diesel Engine for industrial pumping application.",
            "industryCodeId": "238110",
            "workOrderId": "WO-4412",
            "customerCountry": "USA",
            "divisionId": "E",
            "PSETypeId": 1,
            "additionalSourceIds": [],
            "productGroups": [
                {
                    "statusId": 8,
                    "id": 100005,
                    "order": 1,
                    "products": [
                        {
                            "partCategoryId": 11,
                            "rentDurationTypeId": 2,
                            "isPrimary": true,
                            "quantity": 1,
                            "id": 100005,
                            "rentDuration": 24,
                            "familyId": 402,
                            "age": 2,
                            "hours": 800,
                            "unitPrice": 2894,
                            "description": "3516 Diesel Engine",
                            "makeId": "CAT",
                            "baseModelId": "3516",
                            "stockNumber": "STK-112",
                            "serialNumber": "CAT3516C991",
                            "quoteId": 5088,
                            "quoteStatusId": 2,
                            "typeCodeId": 1,
                            "equipmentStatusId": "New"
                        }
                    ]
                }
            ],
            "notes": []
        },
        {
            "estimateDeliveryMonth": 12,
            "isUrgent": false,
            "typeId": 8,
            "probabilityOfClosingId": 5,
            "estimateDeliveryYear": 2013,
            "stageId": 128,
            "phaseId": 4,
            "stageIdEnteredAt": 1,
            "id": 100015,
            "jobSiteId": 500102,
            "salesRepId": 305,
            "ownerUserId": 353,
            "originatorUserId": 421,
            "sourceId": 64,
            "campaignId": 101,
            "classificationId": "A",
            "cmCaseId": "CASE-6632",
            "estimateRevenue": 200000,
            "enterDate": "2013-06-19T12:39:28.903Z",
            "changeDate": "2013-06-19T12:39:28.903Z",
            "customerId": "1067200",
            "customerName": "UPJ CONSTRUCTION INC        ",
            "customerAddress": "550 Skyline Blvd",
            "customerCity": "Joliet",
            "customerZipCode": "60435",
            "customerState": "IL",
            "principalWorkCodeId": "PW-01",
            "externalReferenceNumber": "EXT-33412",
            "branchId": 10,
            "olgaOpportunityId": "OLG-601",
            "contactName": "Aisha Bartlett",
            "contactPhone": "815-555-0332",
            "contactEmail": "aisha.b@upjconstruction.com",
            "description": "Purchase of new CAT 320 Excavator for commercial subdivision development.",
            "industryCodeId": "236115",
            "workOrderId": "WO-5512",
            "customerCountry": "USA",
            "divisionId": "E",
            "PSETypeId": 1,
            "additionalSourceIds": [],
            "productGroups": [
                {
                    "statusId": 8,
                    "id": 100015,
                    "order": 1,
                    "products": [
                        {
                            "partCategoryId": 20,
                            "rentDurationTypeId": 3,
                            "isPrimary": true,
                            "quantity": 1,
                            "id": 100015,
                            "rentDuration": 1,
                            "familyId": 101,
                            "age": 0,
                            "hours": 10,
                            "unitPrice": 200000,
                            "description": "Excavator 320",
                            "makeId": "CAT",
                            "baseModelId": "320",
                            "stockNumber": "STK-771",
                            "serialNumber": "CAT00320E551",
                            "quoteId": 6001,
                            "quoteStatusId": 4,
                            "typeCodeId": 1,
                            "equipmentStatusId": "New"
                        }
                    ]
                }
            ],
            "notes": []
        },
        {
            "estimateDeliveryMonth": 7,
            "isUrgent": false,
            "typeId": 8,
            "probabilityOfClosingId": "Medium",
            "estimateDeliveryYear": 2013,
            "stageId": 128,
            "phaseId": 4,
            "stageIdEnteredAt": 1,
            "id": 100016,
            "jobSiteId": 500106,
            "salesRepId": 304,
            "ownerUserId": 211,
            "originatorUserId": 421,
            "sourceId": 64,
            "campaignId": 104,
            "classificationId": "C",
            "cmCaseId": "CASE-1102",
            "estimateRevenue": 12500,
            "enterDate": "2013-06-19T12:51:40.913Z",
            "changeDate": "2013-12-05T16:23:58.720Z",
            "customerId": "1293500",
            "customerName": "VHK WELL DRILLING INC       ",
            "customerAddress": "100 Water Works Rd",
            "customerCity": "Springfield",
            "customerZipCode": "62702",
            "customerState": "IL",
            "principalWorkCodeId": "PW-08",
            "externalReferenceNumber": "EXT-88219",
            "branchId": 16,
            "olgaOpportunityId": "OLG-712",
            "contactName": "Robert Vance",
            "contactPhone": "217-555-0991",
            "contactEmail": "robert.vance@vhkdrilling.com",
            "description": "Emergency service and parts for high-pressure air compressor on drilling rig.",
            "industryCodeId": "237110",
            "workOrderId": "WO-6621",
            "customerCountry": "USA",
            "divisionId": "E",
            "PSETypeId": 1,
            "additionalSourceIds": [],
            "productGroups": [],
            "notes": []
        },
        {
            "estimateDeliveryMonth": 12,
            "isUrgent": true,
            "typeId": 2,
            "probabilityOfClosingId": "Medium",
            "estimateDeliveryYear": 2013,
            "stageId": 128,
            "phaseId": 4,
            "stageIdEnteredAt": 1,
            "id": 100018,
            "jobSiteId": 500107,
            "salesRepId": 260,
            "ownerUserId": 39,
            "originatorUserId": 128,
            "sourceId": 2,
            "campaignId": 105,
            "classificationId": "B",
            "cmCaseId": "CASE-2291",
            "estimateRevenue": 8750,
            "enterDate": "2013-06-19T13:36:45.730Z",
            "changeDate": "2013-07-30T09:25:19.233Z",
            "customerId": "1174395",
            "customerName": "RON CONTRACTOR LTD",
            "customerAddress": "Willow Creek Dr & Route 20",
            "customerCity": "Rockford",
            "customerZipCode": "61108",
            "customerState": "IL",
            "principalWorkCodeId": "PW-03",
            "externalReferenceNumber": "EXT-44211",
            "branchId": 11,
            "olgaOpportunityId": "OLG-802",
            "contactName": "Angelina Cline",
            "contactPhone": "815-555-0112",
            "contactEmail": "angelina.cline@roncontractor.com",
            "description": "Undercarriage overhaul and scheduled maintenance for fleet Dozer.",
            "industryCodeId": "238910",
            "workOrderId": "WO-7712",
            "customerCountry": "USA",
            "divisionId": "R",
            "PSETypeId": 2,
            "additionalSourceIds": [],
            "productGroups": [],
            "notes": []
        },
        {
            "estimateDeliveryMonth": 7,
            "isUrgent": false,
            "typeId": 4,
            "probabilityOfClosingId": "High",
            "estimateDeliveryYear": 2013,
            "stageId": 16,
            "phaseId": 3,
            "stageIdEnteredAt": 16,
            "id": 100024,
            "jobSiteId": 500104,
            "salesRepId": 292,
            "ownerUserId": 140,
            "originatorUserId": 140,
            "sourceId": 256,
            "campaignId": 101,
            "classificationId": "A",
            "cmCaseId": "CASE-8832",
            "estimateRevenue": 1433.84,
            "enterDate": "2013-06-24T10:43:01.060Z",
            "changeDate": "2013-06-24T10:43:01.060Z",
            "customerId": "1764465",
            "customerName": "HUZ CONTRACTOR LTD",
            "customerAddress": "195 Fox Valley Center",
            "customerCity": "Aurora",
            "customerZipCode": "60504",
            "customerState": "IL",
            "principalWorkCodeId": "PW-04",
            "externalReferenceNumber": "EXT-55219",
            "branchId": 13,
            "olgaOpportunityId": "OLG-910",
            "contactName": "Michael Trent",
            "contactPhone": "217-555-0221",
            "contactEmail": "michael.trent@huzcontractor.com",
            "description": "Monthly rental of 262D Skid Steer for urban landscaping project.",
            "industryCodeId": "238990",
            "workOrderId": "WO-8821",
            "customerCountry": "USA",
            "divisionId": "E",
            "PSETypeId": 1,
            "additionalSourceIds": [],
            "productGroups": [
                {
                    "statusId": 2,
                    "id": 100024,
                    "order": 1,
                    "products": [
                        {
                            "partCategoryId": 2,
                            "rentDurationTypeId": 1,
                            "isPrimary": true,
                            "quantity": 1,
                            "id": 100024,
                            "rentDuration": 1,
                            "familyId": 205,
                            "age": 4,
                            "hours": 2100,
                            "unitPrice": 1433.84,
                            "description": "Skid Steer 262D",
                            "makeId": "CAT",
                            "baseModelId": "262D",
                            "stockNumber": "STK-220",
                            "serialNumber": "CAT00262D998",
                            "quoteId": 6120,
                            "quoteStatusId": 2,
                            "typeCodeId": 2,
                            "equipmentStatusId": "Rental"
                        }
                    ]
                }
            ],
            "notes": []
        },
        {
            "estimateDeliveryMonth": 7,
            "isUrgent": false,
            "typeId": 1,
            "probabilityOfClosingId": "High",
            "estimateDeliveryYear": 2013,
            "stageId": 16,
            "phaseId": 3,
            "stageIdEnteredAt": 4,
            "id": 100026,
            "jobSiteId": 500108,
            "salesRepId": 292,
            "ownerUserId": 140,
            "originatorUserId": 140,
            "sourceId": 128,
            "campaignId": 106,
            "classificationId": "A",
            "cmCaseId": "CASE-3391",
            "estimateRevenue": 1300,
            "enterDate": "2013-06-25T12:47:04.526Z",
            "changeDate": "2013-06-28T11:01:08.863Z",
            "customerId": "$000313",
            "customerName": "PHO CONTRACTOR LTD",
            "customerAddress": "Main St Bridge",
            "customerCity": "Bloomington",
            "customerZipCode": "61701",
            "customerState": "IL",
            "principalWorkCodeId": "PW-02",
            "externalReferenceNumber": "EXT-66120",
            "branchId": 12,
            "olgaOpportunityId": "OLG-110",
            "contactName": "Betsy Owens",
            "contactPhone": "309-555-0663",
            "contactEmail": "betsy.owens@phocontractor.com",
            "description": "Supply of C7 Industrial Engine parts for equipment repower.",
            "industryCodeId": "4489",
            "workOrderId": "WO-9901",
            "customerCountry": "USA",
            "divisionId": "E",
            "PSETypeId": 1,
            "additionalSourceIds": [],
            "productGroups": [
                {
                    "statusId": 2,
                    "id": 100026,
                    "order": 1,
                    "products": [
                        {
                            "partCategoryId": 18,
                            "rentDurationTypeId": 1,
                            "isPrimary": true,
                            "quantity": 1,
                            "id": 100026,
                            "rentDuration": 1,
                            "familyId": 105,
                            "age": 6,
                            "hours": 5200,
                            "unitPrice": 1300,
                            "description": "C7 Industrial Engine",
                            "makeId": "CAT",
                            "baseModelId": "C7",
                            "stockNumber": "STK-331",
                            "serialNumber": "CAT000C7F120",
                            "quoteId": 6200,
                            "quoteStatusId": 2,
                            "typeCodeId": 2,
                            "equipmentStatusId": "New"
                        }
                    ]
                }
            ],
            "notes": []
        },
        {
            "estimateDeliveryMonth": 7,
            "isUrgent": true,
            "typeId": 2,
            "probabilityOfClosingId": "Low",
            "estimateDeliveryYear": 2013,
            "stageId": 128,
            "phaseId": 4,
            "stageIdEnteredAt": 1,
            "id": 100027,
            "jobSiteId": 500103,
            "salesRepId": 262,
            "ownerUserId": 612,
            "originatorUserId": 729,
            "sourceId": 64,
            "campaignId": 107,
            "classificationId": "D",
            "cmCaseId": "CASE-4401",
            "estimateRevenue": 5500,
            "enterDate": "2013-06-27T08:28:38.780Z",
            "changeDate": "2013-06-27T08:28:38.780Z",
            "customerId": "NON-DBS",
            "customerName": "YUQ PAVING",
            "customerAddress": "I-55 Southbound",
            "customerCity": "Bolingbrook",
            "customerZipCode": "60440",
            "customerState": "IL",
            "principalWorkCodeId": "PW-05",
            "externalReferenceNumber": "EXT-11299",
            "branchId": 10,
            "olgaOpportunityId": "OLG-221",
            "contactName": "Angelia Sexton",
            "contactPhone": "630-555-0441",
            "contactEmail": "angelia.s@yuqpaving.com",
            "description": "Rental of double drum rollers for finish paving work on commercial lot.",
            "industryCodeId": "237310",
            "workOrderId": "WO-1011",
            "customerCountry": "USA",
            "divisionId": "R",
            "PSETypeId": 2,
            "additionalSourceIds": [],
            "productGroups": [],
            "notes": []
        }
    ],
    "sorting": "id",
    "pagination": {
        "size": 10,
        "page": 0,
        "totalPages": 7319,
        "totalElements": 73182,
        "last": false,
        "first": true
    },
    "duration": "2.462 seconds"
}