{
    "content": [
        {
            "salesrepid": 79,
            "firstname": "Trina",
            "lastname": "Merritt",
            "email": null
        },
        {
            "salesrepid": 236,
            "firstname": "Theron",
            "lastname": "Miles",
            "email": "nuxapyal.pbsvhlbkqs@smmrvbbtb.rwwirt.com"
        },
        {
            "salesrepid": 237,
            "firstname": "Hugh",
            "lastname": "Mc Mahon",
            "email": "ydzwqbka.dimlizfhcv@juxlztzp.gbgxnf.net"
        },
        {
            "salesrepid": 238,
            "firstname": "Kori",
            "lastname": "Guerrero",
            "email": null
        },
        {
            "salesrepid": 239,
            "firstname": "Kori",
            "lastname": "Graham",
            "email": "xvnzwec.ljzopvd@dgsiwd.yvfnlb.org"
        },
        {
            "salesrepid": 240,
            "firstname": "Ruth",
            "lastname": "Mc Cormick",
            "email": "mrbpzul.amcuhx@odjtpiqqx.wxb-ep.org"
        },
        {
            "salesrepid": 241,
            "firstname": "Kristine",
            "lastname": "Contreras",
            "email": null
        },
        {
            "salesrepid": 242,
            "firstname": "Kathy",
            "lastname": "Watson",
            "email": "ksroovm.bebdmsfmra@ibsykc.nwlhc-.com"
        },
        {
            "salesrepid": 243,
            "firstname": "Athena",
            "lastname": "Gregory",
            "email": "qackttft.kcoihknv@pfangoylk.oxesbx.com"
        },
        {
            "salesrepid": 244,
            "firstname": "Shad",
            "lastname": "Mc Mahon",
            "email": "jiymigf.dmgmuv@vasdtyjbk.vwxdru.org"
        },
        {
            "salesrepid": 260,
            "firstname": "David",
            "lastname": "Miller",
            "email": "david.miller@example.com"
        },
        {
            "salesrepid": 262,
            "firstname": "Lisa",
            "lastname": "Wong",
            "email": "lisa.wong@example.com"
        },
        {
            "salesrepid": 292,
            "firstname": "James",
            "lastname": "Kowalski",
            "email": "j.kowalski@example.com"
        },
        {
            "salesrepid": 303,
            "firstname": "Sarah",
            "lastname": "O'Connor",
            "email": "s.oconnor@example.com"
        },
        {
            "salesrepid": 304,
            "firstname": "Robert",
            "lastname": "Plant",
            "email": "r.plant@example.com"
        },
        {
            "salesrepid": 305,
            "firstname": "Jennifer",
            "lastname": "Page",
            "email": "j.page@example.com"
        },
        {
            "salesrepid": 313,
            "firstname": "Thomas",
            "lastname": "Anderson",
            "email": "t.anderson@example.com"
        }
    ],
    "sorting": "salesrepid",
    "pagination": {
        "size": 20,
        "page": 0,
        "totalPages": 24,
        "totalElements": 246,
        "last": false,
        "first": true
    },
    "duration": "0.016 seconds"
}